{
	"info": {
		"_postman_id": "be0f2074-c2e2-4b09-acff-0b3c9002ed6d",
		"name": "Nextmedia",
		"schema": "https://schema.getpostman.com/json/collection/v2.1.0/collection.json"
	},
	"item": [
		{
			"name": "Products",
			"item": [
				{
					"name": "getProducts",
					"event": [
						{
							"listen": "test",
							"script": {
								"id": "a3e7a838-1431-4e0a-8414-18b576c0c0cf",
								"exec": [
									"pm.test(\"response is ok\", function () {\r",
									"    pm.response.to.have.status(200);\r",
									"});\r",
									"\r",
									"pm.test(\"products found\", function () {\r",
									"    pm.expect(pm.response.json().products).to.have.lengthOf(2);\r",
									"});"
								],
								"type": "text/javascript"
							}
						}
					],
					"protocolProfileBehavior": {
						"disableBodyPruning": true
					},
					"request": {
						"auth": {
							"type": "basic",
							"basic": [
								{
									"key": "password",
									"value": "Azerty12",
									"type": "string"
								},
								{
									"key": "username",
									"value": "test@nextmedia.ma",
									"type": "string"
								}
							]
						},
						"method": "GET",
						"header": [
							{
								"key": "Content-Type",
								"name": "Content-Type",
								"value": "application/x-www-form-urlencoded",
								"type": "text"
							}
						],
						"body": {},
						"url": {
							"raw": "http://localhost:8000/api/seller/products",
							"protocol": "http",
							"host": [
								"localhost"
							],
							"port": "8000",
							"path": [
								"api",
								"seller",
								"products"
							]
						}
					},
					"response": [
						{
							"name": "getProducts",
							"originalRequest": {
								"method": "GET",
								"header": [
									{
										"key": "Content-Type",
										"name": "Content-Type",
										"value": "application/x-www-form-urlencoded",
										"type": "text"
									}
								],
								"body": {},
								"url": {
									"raw": "http://localhost:8000/api/seller/products",
									"protocol": "http",
									"host": [
										"localhost"
									],
									"port": "8000",
									"path": [
										"api",
										"seller",
										"products"
									]
								}
							},
							"status": "OK",
							"code": 200,
							"_postman_previewlanguage": "json",
							"header": [
								{
									"key": "Host",
									"value": "localhost:8000"
								},
								{
									"key": "Date",
									"value": "Fri, 22 Mar 2019 17:15:58 +0000"
								},
								{
									"key": "Date",
									"value": "Fri, 22 Mar 2019 17:15:58 GMT"
								},
								{
									"key": "Connection",
									"value": "close"
								},
								{
									"key": "X-Powered-By",
									"value": "PHP/7.1.11"
								},
								{
									"key": "Cache-Control",
									"value": "no-cache, must-revalidate, max-age=0"
								},
								{
									"key": "Cache-Control",
									"value": "no-cache, private"
								},
								{
									"key": "Content-Type",
									"value": "application/json"
								},
								{
									"key": "X-RateLimit-Limit",
									"value": "60"
								},
								{
									"key": "X-RateLimit-Remaining",
									"value": "59"
								}
							],
							"cookie": [],
							"body": "{\n    \"products\": [\n        {\n            \"id\": 1,\n            \"title\": \"Chargeur\",\n            \"description\": \"Pour iphone\",\n            \"price\": 15,\n            \"inventory\": 14,\n            \"created_at\": null,\n            \"updated_at\": null,\n            \"deleted_at\": null\n        },\n        {\n            \"id\": 2,\n            \"title\": \"Cable usb\",\n            \"description\": \"original\",\n            \"price\": 22,\n            \"inventory\": 10,\n            \"created_at\": null,\n            \"updated_at\": null,\n            \"deleted_at\": null\n        },\n        {\n            \"id\": 7,\n            \"title\": \"Poche de telephone\",\n            \"description\": \"pour Iphone 7+\",\n            \"price\": 79,\n            \"inventory\": 2,\n            \"created_at\": \"2019-03-22 17:14:54\",\n            \"updated_at\": \"2019-03-22 17:14:54\",\n            \"deleted_at\": null\n        }\n    ]\n}"
						}
					]
				},
				{
					"name": "addProduct",
					"event": [
						{
							"listen": "test",
							"script": {
								"id": "271a9c40-6ecc-48f9-be4f-a447f1ea31cf",
								"exec": [
									"pm.test(\"product added\", function () {\r",
									"    pm.response.to.have.status(200);\r",
									"});\r",
									"\r",
									"pm.test(\"field missing\", function () {\r",
									"    pm.response.to.have.status(203);\r",
									"});"
								],
								"type": "text/javascript"
							}
						}
					],
					"request": {
						"auth": {
							"type": "basic",
							"basic": [
								{
									"key": "password",
									"value": "Azerty12",
									"type": "string"
								},
								{
									"key": "username",
									"value": "test@nextmedia.ma",
									"type": "string"
								}
							]
						},
						"method": "POST",
						"header": [
							{
								"key": "Content-Type",
								"value": "application/json",
								"type": "text"
							}
						],
						"body": {
							"mode": "formdata",
							"formdata": [
								{
									"key": "title",
									"value": "Poche de telephone",
									"type": "text"
								},
								{
									"key": "description",
									"value": "pour Iphone 7+",
									"type": "text"
								},
								{
									"key": "price",
									"value": "79",
									"type": "text"
								},
								{
									"key": "inventory",
									"value": "2",
									"type": "text"
								}
							]
						},
						"url": {
							"raw": "http://localhost:8000/api/seller/products",
							"protocol": "http",
							"host": [
								"localhost"
							],
							"port": "8000",
							"path": [
								"api",
								"seller",
								"products"
							]
						}
					},
					"response": [
						{
							"name": "addProduct",
							"originalRequest": {
								"method": "POST",
								"header": [
									{
										"key": "Content-Type",
										"value": "application/json",
										"type": "text"
									}
								],
								"body": {
									"mode": "formdata",
									"formdata": [
										{
											"key": "title",
											"value": "Poche de telephone",
											"type": "text"
										},
										{
											"key": "description",
											"value": "pour Iphone 7+",
											"type": "text"
										},
										{
											"key": "price",
											"value": "79",
											"type": "text"
										},
										{
											"key": "inventory",
											"value": "2",
											"type": "text"
										}
									]
								},
								"url": {
									"raw": "http://localhost:8000/api/seller/products",
									"protocol": "http",
									"host": [
										"localhost"
									],
									"port": "8000",
									"path": [
										"api",
										"seller",
										"products"
									]
								}
							},
							"status": "OK",
							"code": 200,
							"_postman_previewlanguage": "json",
							"header": [
								{
									"key": "Host",
									"value": "localhost:8000"
								},
								{
									"key": "Date",
									"value": "Fri, 22 Mar 2019 17:19:05 +0000"
								},
								{
									"key": "Date",
									"value": "Fri, 22 Mar 2019 17:19:05 GMT"
								},
								{
									"key": "Connection",
									"value": "close"
								},
								{
									"key": "X-Powered-By",
									"value": "PHP/7.1.11"
								},
								{
									"key": "Cache-Control",
									"value": "no-cache, must-revalidate, max-age=0"
								},
								{
									"key": "Cache-Control",
									"value": "no-cache, private"
								},
								{
									"key": "Content-Type",
									"value": "application/json"
								},
								{
									"key": "X-RateLimit-Limit",
									"value": "60"
								},
								{
									"key": "X-RateLimit-Remaining",
									"value": "58"
								}
							],
							"cookie": [],
							"body": "{\n    \"product\": {\n        \"title\": \"Poche de telephone\",\n        \"description\": \"pour Iphone 7+\",\n        \"price\": \"79\",\n        \"inventory\": \"2\",\n        \"updated_at\": \"2019-03-22 17:19:05\",\n        \"created_at\": \"2019-03-22 17:19:05\",\n        \"id\": 8\n    },\n    \"message\": \"Product created successfully\"\n}"
						}
					]
				},
				{
					"name": "editProduct",
					"event": [
						{
							"listen": "test",
							"script": {
								"id": "e9a329f5-260a-4426-9d87-3673038e7bdb",
								"exec": [
									"pm.test(\"product edited\", function () {\r",
									"    pm.response.to.have.status(200);\r",
									"});\r",
									"\r",
									"pm.test(\"field missing\", function () {\r",
									"    pm.response.to.have.status(203);\r",
									"});\r",
									"\r",
									"pm.test(\"product not found\", function () {\r",
									"    pm.response.to.have.status(404);\r",
									"});"
								],
								"type": "text/javascript"
							}
						}
					],
					"request": {
						"auth": {
							"type": "basic",
							"basic": [
								{
									"key": "password",
									"value": "Azerty12",
									"type": "string"
								},
								{
									"key": "username",
									"value": "test@nextmedia.ma",
									"type": "string"
								}
							]
						},
						"method": "PUT",
						"header": [
							{
								"key": "Content-Type",
								"name": "Content-Type",
								"value": "application/x-www-form-urlencoded",
								"type": "text"
							}
						],
						"body": {
							"mode": "urlencoded",
							"urlencoded": [
								{
									"key": "title",
									"value": "Poche de telephone",
									"type": "text"
								},
								{
									"key": "description",
									"value": "pour iPhone 7+/8+",
									"type": "text"
								},
								{
									"key": "price",
									"value": "69",
									"type": "text"
								},
								{
									"key": "inventory",
									"value": "5",
									"type": "text"
								}
							]
						},
						"url": {
							"raw": "http://localhost:8000/api/seller/products/8",
							"protocol": "http",
							"host": [
								"localhost"
							],
							"port": "8000",
							"path": [
								"api",
								"seller",
								"products",
								"8"
							]
						}
					},
					"response": [
						{
							"name": "editProduct",
							"originalRequest": {
								"method": "PUT",
								"header": [
									{
										"key": "Content-Type",
										"name": "Content-Type",
										"value": "application/x-www-form-urlencoded",
										"type": "text"
									}
								],
								"body": {
									"mode": "urlencoded",
									"urlencoded": [
										{
											"key": "title",
											"value": "Poche de telephone",
											"type": "text"
										},
										{
											"key": "description",
											"value": "pour iPhone 7+/8+",
											"type": "text"
										},
										{
											"key": "price",
											"value": "69",
											"type": "text"
										},
										{
											"key": "inventory",
											"value": "5",
											"type": "text"
										}
									]
								},
								"url": {
									"raw": "http://localhost:8000/api/seller/products/8",
									"protocol": "http",
									"host": [
										"localhost"
									],
									"port": "8000",
									"path": [
										"api",
										"seller",
										"products",
										"8"
									]
								}
							},
							"status": "OK",
							"code": 200,
							"_postman_previewlanguage": "json",
							"header": [
								{
									"key": "Host",
									"value": "localhost:8000"
								},
								{
									"key": "Date",
									"value": "Fri, 22 Mar 2019 17:30:03 +0000"
								},
								{
									"key": "Date",
									"value": "Fri, 22 Mar 2019 17:30:03 GMT"
								},
								{
									"key": "Connection",
									"value": "close"
								},
								{
									"key": "X-Powered-By",
									"value": "PHP/7.1.11"
								},
								{
									"key": "Cache-Control",
									"value": "no-cache, must-revalidate, max-age=0"
								},
								{
									"key": "Cache-Control",
									"value": "no-cache, private"
								},
								{
									"key": "Content-Type",
									"value": "application/json"
								},
								{
									"key": "X-RateLimit-Limit",
									"value": "60"
								},
								{
									"key": "X-RateLimit-Remaining",
									"value": "58"
								}
							],
							"cookie": [],
							"body": "{\n    \"message\": \"Product updated successfully\"\n}"
						}
					]
				},
				{
					"name": "removeProduct",
					"event": [
						{
							"listen": "test",
							"script": {
								"id": "4f19fd34-1caf-4599-96ff-eba8883cafa2",
								"exec": [
									"pm.test(\"product deleted\", function () {\r",
									"    pm.response.to.have.status(200);\r",
									"});\r",
									"\r",
									"pm.test(\"product not found\", function () {\r",
									"    pm.response.to.have.status(404);\r",
									"});"
								],
								"type": "text/javascript"
							}
						}
					],
					"request": {
						"auth": {
							"type": "basic",
							"basic": [
								{
									"key": "password",
									"value": "Azerty12",
									"type": "string"
								},
								{
									"key": "username",
									"value": "test@nextmedia.ma",
									"type": "string"
								}
							]
						},
						"method": "DELETE",
						"header": [
							{
								"key": "Content-Type",
								"name": "Content-Type",
								"value": "application/x-www-form-urlencoded",
								"type": "text"
							}
						],
						"body": {},
						"url": {
							"raw": "http://localhost:8000/api/seller/products/8",
							"protocol": "http",
							"host": [
								"localhost"
							],
							"port": "8000",
							"path": [
								"api",
								"seller",
								"products",
								"8"
							]
						}
					},
					"response": [
						{
							"name": "removeProduct",
							"originalRequest": {
								"method": "DELETE",
								"header": [
									{
										"key": "Content-Type",
										"name": "Content-Type",
										"value": "application/x-www-form-urlencoded",
										"type": "text"
									}
								],
								"body": {},
								"url": {
									"raw": "http://localhost:8000/api/seller/products/8",
									"protocol": "http",
									"host": [
										"localhost"
									],
									"port": "8000",
									"path": [
										"api",
										"seller",
										"products",
										"8"
									]
								}
							},
							"status": "OK",
							"code": 200,
							"_postman_previewlanguage": "json",
							"header": [
								{
									"key": "Host",
									"value": "localhost:8000"
								},
								{
									"key": "Date",
									"value": "Fri, 22 Mar 2019 17:30:36 +0000"
								},
								{
									"key": "Date",
									"value": "Fri, 22 Mar 2019 17:30:36 GMT"
								},
								{
									"key": "Connection",
									"value": "close"
								},
								{
									"key": "X-Powered-By",
									"value": "PHP/7.1.11"
								},
								{
									"key": "Cache-Control",
									"value": "no-cache, must-revalidate, max-age=0"
								},
								{
									"key": "Cache-Control",
									"value": "no-cache, private"
								},
								{
									"key": "Content-Type",
									"value": "application/json"
								},
								{
									"key": "X-RateLimit-Limit",
									"value": "60"
								},
								{
									"key": "X-RateLimit-Remaining",
									"value": "57"
								}
							],
							"cookie": [],
							"body": "{\n    \"message\": \"Product deleted successfully\"\n}"
						}
					]
				},
				{
					"name": "getProduct",
					"event": [
						{
							"listen": "test",
							"script": {
								"id": "24d6567e-cd3d-4c1f-a935-92954b468305",
								"exec": [
									"pm.test(\"product found\", function () {\r",
									"    pm.response.to.have.status(200);\r",
									"});\r",
									"\r",
									"pm.test(\"product not found\", function () {\r",
									"    pm.response.to.have.status(404);\r",
									"});"
								],
								"type": "text/javascript"
							}
						}
					],
					"request": {
						"auth": {
							"type": "basic",
							"basic": [
								{
									"key": "password",
									"value": "Azerty12",
									"type": "string"
								},
								{
									"key": "username",
									"value": "test@nextmedia.ma",
									"type": "string"
								}
							]
						},
						"method": "GET",
						"header": [],
						"body": {
							"mode": "raw",
							"raw": ""
						},
						"url": {
							"raw": "http://localhost:8000/api/seller/products/1",
							"protocol": "http",
							"host": [
								"localhost"
							],
							"port": "8000",
							"path": [
								"api",
								"seller",
								"products",
								"1"
							]
						}
					},
					"response": [
						{
							"name": "getProduct",
							"originalRequest": {
								"method": "GET",
								"header": [],
								"body": {
									"mode": "raw",
									"raw": ""
								},
								"url": {
									"raw": "http://localhost:8000/api/seller/products/1",
									"protocol": "http",
									"host": [
										"localhost"
									],
									"port": "8000",
									"path": [
										"api",
										"seller",
										"products",
										"1"
									]
								}
							},
							"status": "OK",
							"code": 200,
							"_postman_previewlanguage": "json",
							"header": [
								{
									"key": "Host",
									"value": "localhost:8000"
								},
								{
									"key": "Date",
									"value": "Fri, 22 Mar 2019 17:30:47 +0000"
								},
								{
									"key": "Date",
									"value": "Fri, 22 Mar 2019 17:30:47 GMT"
								},
								{
									"key": "Connection",
									"value": "close"
								},
								{
									"key": "X-Powered-By",
									"value": "PHP/7.1.11"
								},
								{
									"key": "Cache-Control",
									"value": "no-cache, must-revalidate, max-age=0"
								},
								{
									"key": "Cache-Control",
									"value": "no-cache, private"
								},
								{
									"key": "Content-Type",
									"value": "application/json"
								},
								{
									"key": "X-RateLimit-Limit",
									"value": "60"
								},
								{
									"key": "X-RateLimit-Remaining",
									"value": "56"
								}
							],
							"cookie": [],
							"body": "{\n    \"product\": {\n        \"id\": 1,\n        \"title\": \"Chargeur\",\n        \"description\": \"Pour iphone\",\n        \"price\": 15,\n        \"inventory\": 14,\n        \"created_at\": null,\n        \"updated_at\": null,\n        \"deleted_at\": null\n    },\n    \"message\": \"Product found\"\n}"
						}
					]
				}
			]
		},
		{
			"name": "Orders",
			"item": [
				{
					"name": "getOrders",
					"event": [
						{
							"listen": "test",
							"script": {
								"id": "ce93ce17-e665-4128-a460-7c51e0acc9e3",
								"exec": [
									"pm.test(\"response is ok\", function () {\r",
									"    pm.response.to.have.status(200);\r",
									"});\r",
									"\r",
									"pm.test(\"orders found\", function () {\r",
									"    pm.expect(pm.response.json().length).to.be.above(0);\r",
									"});\r",
									"\r",
									"pm.test(\"orders not found\", function () {\r",
									"    pm.expect(pm.response.json().length).to.be.eql(0);\r",
									"});"
								],
								"type": "text/javascript"
							}
						}
					],
					"request": {
						"auth": {
							"type": "basic",
							"basic": [
								{
									"key": "password",
									"value": "Azerty12",
									"type": "string"
								},
								{
									"key": "username",
									"value": "test@nextmedia.ma",
									"type": "string"
								}
							]
						},
						"method": "GET",
						"header": [],
						"body": {
							"mode": "raw",
							"raw": ""
						},
						"url": {
							"raw": "http://localhost:8000/api/seller/orders",
							"protocol": "http",
							"host": [
								"localhost"
							],
							"port": "8000",
							"path": [
								"api",
								"seller",
								"orders"
							]
						}
					},
					"response": [
						{
							"name": "getOrders",
							"originalRequest": {
								"method": "GET",
								"header": [],
								"body": {
									"mode": "raw",
									"raw": ""
								},
								"url": {
									"raw": "http://localhost:8000/api/seller/orders",
									"protocol": "http",
									"host": [
										"localhost"
									],
									"port": "8000",
									"path": [
										"api",
										"seller",
										"orders"
									]
								}
							},
							"status": "OK",
							"code": 200,
							"_postman_previewlanguage": "json",
							"header": [
								{
									"key": "Host",
									"value": "localhost:8000"
								},
								{
									"key": "Date",
									"value": "Fri, 22 Mar 2019 17:42:05 +0000"
								},
								{
									"key": "Date",
									"value": "Fri, 22 Mar 2019 17:42:05 GMT"
								},
								{
									"key": "Connection",
									"value": "close"
								},
								{
									"key": "X-Powered-By",
									"value": "PHP/7.1.11"
								},
								{
									"key": "Cache-Control",
									"value": "no-cache, must-revalidate, max-age=0"
								},
								{
									"key": "Cache-Control",
									"value": "no-cache, private"
								},
								{
									"key": "Content-Type",
									"value": "application/json"
								},
								{
									"key": "X-RateLimit-Limit",
									"value": "60"
								},
								{
									"key": "X-RateLimit-Remaining",
									"value": "58"
								}
							],
							"cookie": [],
							"body": "{\n    \"orders\": [\n        {\n            \"id\": 1,\n            \"customer_id\": 1,\n            \"status\": \"pending\",\n            \"total\": 0,\n            \"created_at\": \"2019-03-22 17:41:16\",\n            \"updated_at\": \"2019-03-22 17:41:16\"\n        },\n        {\n            \"id\": 2,\n            \"customer_id\": 1,\n            \"status\": \"pending\",\n            \"total\": 15,\n            \"created_at\": \"2019-03-22 17:41:35\",\n            \"updated_at\": \"2019-03-22 17:41:35\"\n        }\n    ]\n}"
						}
					]
				},
				{
					"name": "getOrder",
					"event": [
						{
							"listen": "test",
							"script": {
								"id": "a8f22b78-b792-46ca-b445-87bb929f6361",
								"exec": [
									"pm.test(\"order found\", function () {\r",
									"    pm.response.to.have.status(200);\r",
									"});\r",
									"\r",
									"pm.test(\"order not found\", function () {\r",
									"    pm.response.to.have.status(404);\r",
									"});\r",
									""
								],
								"type": "text/javascript"
							}
						}
					],
					"request": {
						"auth": {
							"type": "basic",
							"basic": [
								{
									"key": "password",
									"value": "Azerty12",
									"type": "string"
								},
								{
									"key": "username",
									"value": "test@nextmedia.ma",
									"type": "string"
								}
							]
						},
						"method": "GET",
						"header": [],
						"body": {
							"mode": "raw",
							"raw": ""
						},
						"url": {
							"raw": "http://localhost:8000/api/seller/orders/2",
							"protocol": "http",
							"host": [
								"localhost"
							],
							"port": "8000",
							"path": [
								"api",
								"seller",
								"orders",
								"2"
							]
						}
					},
					"response": [
						{
							"name": "getOrder",
							"originalRequest": {
								"method": "GET",
								"header": [],
								"body": {
									"mode": "raw",
									"raw": ""
								},
								"url": {
									"raw": "http://localhost:8000/api/seller/orders/2",
									"protocol": "http",
									"host": [
										"localhost"
									],
									"port": "8000",
									"path": [
										"api",
										"seller",
										"orders",
										"2"
									]
								}
							},
							"status": "OK",
							"code": 200,
							"_postman_previewlanguage": "json",
							"header": [
								{
									"key": "Host",
									"value": "localhost:8000"
								},
								{
									"key": "Date",
									"value": "Fri, 22 Mar 2019 17:42:42 +0000"
								},
								{
									"key": "Date",
									"value": "Fri, 22 Mar 2019 17:42:42 GMT"
								},
								{
									"key": "Connection",
									"value": "close"
								},
								{
									"key": "X-Powered-By",
									"value": "PHP/7.1.11"
								},
								{
									"key": "Cache-Control",
									"value": "no-cache, must-revalidate, max-age=0"
								},
								{
									"key": "Cache-Control",
									"value": "no-cache, private"
								},
								{
									"key": "Content-Type",
									"value": "application/json"
								},
								{
									"key": "X-RateLimit-Limit",
									"value": "60"
								},
								{
									"key": "X-RateLimit-Remaining",
									"value": "59"
								}
							],
							"cookie": [],
							"body": "{\n    \"order\": {\n        \"id\": 2,\n        \"customer_id\": 1,\n        \"status\": \"pending\",\n        \"total\": 15,\n        \"created_at\": \"2019-03-22 17:41:35\",\n        \"updated_at\": \"2019-03-22 17:41:35\",\n        \"products\": [\n            {\n                \"id\": 1,\n                \"title\": \"Chargeur\",\n                \"description\": \"Pour iphone\",\n                \"price\": 15,\n                \"inventory\": 13,\n                \"created_at\": null,\n                \"updated_at\": \"2019-03-22 17:41:35\",\n                \"deleted_at\": null,\n                \"pivot\": {\n                    \"product_id\": 2,\n                    \"order_id\": 1\n                }\n            }\n        ]\n    },\n    \"message\": \"Order found\"\n}"
						}
					]
				},
				{
					"name": "confirmOrder",
					"event": [
						{
							"listen": "test",
							"script": {
								"id": "3a49fc46-5119-416d-bd81-767085ada162",
								"exec": [
									"pm.test(\"order confirmed\", function () {\r",
									"    pm.response.to.have.status(200);\r",
									"});\r",
									"\r",
									"pm.test(\"order not found\", function () {\r",
									"    pm.response.to.have.status(404);\r",
									"});\r",
									"\r",
									"pm.test(\"order already confirmed\", function () {\r",
									"    pm.response.to.have.status(201);\r",
									"});\r",
									""
								],
								"type": "text/javascript"
							}
						}
					],
					"request": {
						"auth": {
							"type": "basic",
							"basic": [
								{
									"key": "password",
									"value": "Azerty12",
									"type": "string"
								},
								{
									"key": "username",
									"value": "test@nextmedia.ma",
									"type": "string"
								}
							]
						},
						"method": "GET",
						"header": [],
						"body": {
							"mode": "raw",
							"raw": ""
						},
						"url": {
							"raw": "http://localhost:8000/api/seller/orders/confirm/2",
							"protocol": "http",
							"host": [
								"localhost"
							],
							"port": "8000",
							"path": [
								"api",
								"seller",
								"orders",
								"confirm",
								"2"
							]
						}
					},
					"response": []
				},
				{
					"name": "closeOrder",
					"event": [
						{
							"listen": "test",
							"script": {
								"id": "28b865bb-3b63-40aa-b987-8e040051fee6",
								"exec": [
									"pm.test(\"order closed\", function () {\r",
									"    pm.response.to.have.status(200);\r",
									"});\r",
									"\r",
									"pm.test(\"order not found\", function () {\r",
									"    pm.response.to.have.status(404);\r",
									"});\r",
									"\r",
									"pm.test(\"order already closed\", function () {\r",
									"    pm.response.to.have.status(201);\r",
									"});"
								],
								"type": "text/javascript"
							}
						}
					],
					"request": {
						"auth": {
							"type": "basic",
							"basic": [
								{
									"key": "password",
									"value": "Azerty12",
									"type": "string"
								},
								{
									"key": "username",
									"value": "test@nextmedia.ma",
									"type": "string"
								}
							]
						},
						"method": "GET",
						"header": [],
						"body": {
							"mode": "raw",
							"raw": ""
						},
						"url": {
							"raw": "http://localhost:8000/api/seller/orders/close/1",
							"protocol": "http",
							"host": [
								"localhost"
							],
							"port": "8000",
							"path": [
								"api",
								"seller",
								"orders",
								"close",
								"1"
							]
						}
					},
					"response": [
						{
							"name": "closeOrder",
							"originalRequest": {
								"method": "GET",
								"header": [],
								"body": {
									"mode": "raw",
									"raw": ""
								},
								"url": {
									"raw": "http://localhost:8000/api/seller/orders/close/1",
									"protocol": "http",
									"host": [
										"localhost"
									],
									"port": "8000",
									"path": [
										"api",
										"seller",
										"orders",
										"close",
										"1"
									]
								}
							},
							"status": "OK",
							"code": 200,
							"_postman_previewlanguage": "json",
							"header": [
								{
									"key": "Host",
									"value": "localhost:8000"
								},
								{
									"key": "Date",
									"value": "Fri, 22 Mar 2019 17:43:00 +0000"
								},
								{
									"key": "Date",
									"value": "Fri, 22 Mar 2019 17:43:00 GMT"
								},
								{
									"key": "Connection",
									"value": "close"
								},
								{
									"key": "X-Powered-By",
									"value": "PHP/7.1.11"
								},
								{
									"key": "Cache-Control",
									"value": "no-cache, must-revalidate, max-age=0"
								},
								{
									"key": "Cache-Control",
									"value": "no-cache, private"
								},
								{
									"key": "Content-Type",
									"value": "application/json"
								},
								{
									"key": "X-RateLimit-Limit",
									"value": "60"
								},
								{
									"key": "X-RateLimit-Remaining",
									"value": "57"
								}
							],
							"cookie": [],
							"body": "{\n    \"message\": \"Order status closed\"\n}"
						}
					]
				}
			]
		},
		{
			"name": "Customers",
			"item": [
				{
					"name": "getProducts",
					"event": [
						{
							"listen": "test",
							"script": {
								"id": "2244bead-edbf-4445-a10a-98595c341e38",
								"exec": [
									"pm.test(\"response is ok\", function () {\r",
									"    pm.response.to.have.status(200);\r",
									"});\r",
									"\r",
									"pm.test(\"products found with inventory > 0\", function () {\r",
									"    pm.expect(pm.response.json().length).to.be.above(0);\r",
									"});"
								],
								"type": "text/javascript"
							}
						}
					],
					"request": {
						"method": "GET",
						"header": [],
						"body": {
							"mode": "raw",
							"raw": ""
						},
						"url": {
							"raw": "http://localhost:8000/api/store/products",
							"protocol": "http",
							"host": [
								"localhost"
							],
							"port": "8000",
							"path": [
								"api",
								"store",
								"products"
							]
						}
					},
					"response": [
						{
							"name": "getProducts",
							"originalRequest": {
								"method": "GET",
								"header": [],
								"body": {
									"mode": "raw",
									"raw": ""
								},
								"url": {
									"raw": "http://localhost:8000/api/store/products",
									"protocol": "http",
									"host": [
										"localhost"
									],
									"port": "8000",
									"path": [
										"api",
										"store",
										"products"
									]
								}
							},
							"status": "OK",
							"code": 200,
							"_postman_previewlanguage": "json",
							"header": [
								{
									"key": "Host",
									"value": "localhost:8000"
								},
								{
									"key": "Date",
									"value": "Fri, 22 Mar 2019 17:31:15 +0000"
								},
								{
									"key": "Date",
									"value": "Fri, 22 Mar 2019 17:31:15 GMT"
								},
								{
									"key": "Connection",
									"value": "close"
								},
								{
									"key": "X-Powered-By",
									"value": "PHP/7.1.11"
								},
								{
									"key": "Cache-Control",
									"value": "no-cache, private"
								},
								{
									"key": "Content-Type",
									"value": "application/json"
								},
								{
									"key": "X-RateLimit-Limit",
									"value": "60"
								},
								{
									"key": "X-RateLimit-Remaining",
									"value": "59"
								}
							],
							"cookie": [],
							"body": "{\n    \"products\": [\n        {\n            \"id\": 1,\n            \"title\": \"Chargeur\",\n            \"description\": \"Pour iphone\",\n            \"price\": 15,\n            \"inventory\": 14,\n            \"created_at\": null,\n            \"updated_at\": null,\n            \"deleted_at\": null\n        },\n        {\n            \"id\": 2,\n            \"title\": \"Cable usb\",\n            \"description\": \"original\",\n            \"price\": 22,\n            \"inventory\": 10,\n            \"created_at\": null,\n            \"updated_at\": null,\n            \"deleted_at\": null\n        }\n    ]\n}"
						},
						{
							"name": "getProducts",
							"originalRequest": {
								"method": "GET",
								"header": [],
								"body": {
									"mode": "raw",
									"raw": ""
								},
								"url": {
									"raw": "http://localhost:8000/api/store/products",
									"protocol": "http",
									"host": [
										"localhost"
									],
									"port": "8000",
									"path": [
										"api",
										"store",
										"products"
									]
								}
							},
							"status": "OK",
							"code": 200,
							"_postman_previewlanguage": "json",
							"header": [
								{
									"key": "Host",
									"value": "localhost:8000"
								},
								{
									"key": "Date",
									"value": "Fri, 22 Mar 2019 17:31:15 +0000"
								},
								{
									"key": "Date",
									"value": "Fri, 22 Mar 2019 17:31:15 GMT"
								},
								{
									"key": "Connection",
									"value": "close"
								},
								{
									"key": "X-Powered-By",
									"value": "PHP/7.1.11"
								},
								{
									"key": "Cache-Control",
									"value": "no-cache, private"
								},
								{
									"key": "Content-Type",
									"value": "application/json"
								},
								{
									"key": "X-RateLimit-Limit",
									"value": "60"
								},
								{
									"key": "X-RateLimit-Remaining",
									"value": "59"
								}
							],
							"cookie": [],
							"body": "{\n    \"products\": [\n        {\n            \"id\": 1,\n            \"title\": \"Chargeur\",\n            \"description\": \"Pour iphone\",\n            \"price\": 15,\n            \"inventory\": 14,\n            \"created_at\": null,\n            \"updated_at\": null,\n            \"deleted_at\": null\n        },\n        {\n            \"id\": 2,\n            \"title\": \"Cable usb\",\n            \"description\": \"original\",\n            \"price\": 22,\n            \"inventory\": 10,\n            \"created_at\": null,\n            \"updated_at\": null,\n            \"deleted_at\": null\n        }\n    ]\n}"
						}
					]
				},
				{
					"name": "registerCustomer",
					"event": [
						{
							"listen": "test",
							"script": {
								"id": "16fd4c59-97f5-460a-b1b1-635a2156f13e",
								"exec": [
									"pm.test(\"customer registred\", function () {\r",
									"    pm.response.to.have.status(200);\r",
									"});\r",
									"\r",
									"pm.test(\"fields missing in request\", function () {\r",
									"    pm.response.to.have.status(203);\r",
									"});"
								],
								"type": "text/javascript"
							}
						}
					],
					"request": {
						"method": "POST",
						"header": [
							{
								"key": "Content-Type",
								"value": "application/json",
								"type": "text"
							}
						],
						"body": {
							"mode": "formdata",
							"formdata": [
								{
									"key": "name",
									"value": "Zouheir",
									"type": "text"
								},
								{
									"key": "address",
									"value": "hay essalam el jadida",
									"type": "text"
								},
								{
									"key": "country",
									"value": "morocco",
									"type": "text"
								}
							]
						},
						"url": {
							"raw": "http://localhost:8000/api/store/register",
							"protocol": "http",
							"host": [
								"localhost"
							],
							"port": "8000",
							"path": [
								"api",
								"store",
								"register"
							]
						}
					},
					"response": [
						{
							"name": "registerCustomer",
							"originalRequest": {
								"method": "POST",
								"header": [
									{
										"key": "Content-Type",
										"value": "application/json",
										"type": "text"
									}
								],
								"body": {
									"mode": "formdata",
									"formdata": [
										{
											"key": "name",
											"value": "Zouheir",
											"type": "text"
										},
										{
											"key": "address",
											"value": "hay essalam el jadida",
											"type": "text"
										},
										{
											"key": "country",
											"value": "morocco",
											"type": "text"
										}
									]
								},
								"url": {
									"raw": "http://localhost:8000/api/store/register",
									"protocol": "http",
									"host": [
										"localhost"
									],
									"port": "8000",
									"path": [
										"api",
										"store",
										"register"
									]
								}
							},
							"status": "OK",
							"code": 200,
							"_postman_previewlanguage": "json",
							"header": [
								{
									"key": "Host",
									"value": "localhost:8000"
								},
								{
									"key": "Date",
									"value": "Fri, 22 Mar 2019 17:32:54 +0000"
								},
								{
									"key": "Date",
									"value": "Fri, 22 Mar 2019 17:32:54 GMT"
								},
								{
									"key": "Connection",
									"value": "close"
								},
								{
									"key": "X-Powered-By",
									"value": "PHP/7.1.11"
								},
								{
									"key": "Cache-Control",
									"value": "no-cache, private"
								},
								{
									"key": "Content-Type",
									"value": "application/json"
								},
								{
									"key": "X-RateLimit-Limit",
									"value": "60"
								},
								{
									"key": "X-RateLimit-Remaining",
									"value": "58"
								}
							],
							"cookie": [],
							"body": "{\n    \"message\": \"Customer added successfully\"\n}"
						},
						{
							"name": "registerCustomer",
							"originalRequest": {
								"method": "POST",
								"header": [
									{
										"key": "Content-Type",
										"value": "application/json",
										"type": "text"
									}
								],
								"body": {
									"mode": "formdata",
									"formdata": [
										{
											"key": "name",
											"value": "Zouheir",
											"type": "text"
										},
										{
											"key": "address",
											"value": "hay essalam el jadida",
											"type": "text"
										},
										{
											"key": "country",
											"value": "morocco",
											"type": "text"
										}
									]
								},
								"url": {
									"raw": "http://localhost:8000/api/store/register",
									"protocol": "http",
									"host": [
										"localhost"
									],
									"port": "8000",
									"path": [
										"api",
										"store",
										"register"
									]
								}
							},
							"status": "OK",
							"code": 200,
							"_postman_previewlanguage": "json",
							"header": [
								{
									"key": "Host",
									"value": "localhost:8000"
								},
								{
									"key": "Date",
									"value": "Fri, 22 Mar 2019 17:32:54 +0000"
								},
								{
									"key": "Date",
									"value": "Fri, 22 Mar 2019 17:32:54 GMT"
								},
								{
									"key": "Connection",
									"value": "close"
								},
								{
									"key": "X-Powered-By",
									"value": "PHP/7.1.11"
								},
								{
									"key": "Cache-Control",
									"value": "no-cache, private"
								},
								{
									"key": "Content-Type",
									"value": "application/json"
								},
								{
									"key": "X-RateLimit-Limit",
									"value": "60"
								},
								{
									"key": "X-RateLimit-Remaining",
									"value": "58"
								}
							],
							"cookie": [],
							"body": "{\n    \"message\": \"Customer added successfully\"\n}"
						}
					]
				},
				{
					"name": "addProduct",
					"event": [
						{
							"listen": "test",
							"script": {
								"id": "6f9835e9-0b8c-4bbd-ae7d-493a870f2ca3",
								"exec": [
									"pm.test(\"product added\", function () {\r",
									"    pm.response.to.have.status(200);\r",
									"});\r",
									"\r",
									"pm.test(\"product already in the cart\", function () {\r",
									"    pm.response.to.have.status(201);\r",
									"});\r",
									"\r",
									"pm.test(\"product is out of stock\", function () {\r",
									"    pm.response.to.have.status(404);\r",
									"});"
								],
								"type": "text/javascript"
							}
						}
					],
					"request": {
						"method": "POST",
						"header": [
							{
								"key": "Content-Type",
								"value": "application/json",
								"type": "text"
							}
						],
						"body": {
							"mode": "formdata",
							"formdata": [
								{
									"key": "customer",
									"value": "1",
									"description": "cookie data",
									"type": "text"
								},
								{
									"key": "product",
									"value": "1",
									"type": "text"
								}
							]
						},
						"url": {
							"raw": "http://localhost:8000/api/store/cart/add",
							"protocol": "http",
							"host": [
								"localhost"
							],
							"port": "8000",
							"path": [
								"api",
								"store",
								"cart",
								"add"
							]
						}
					},
					"response": [
						{
							"name": "addProduct",
							"originalRequest": {
								"method": "POST",
								"header": [
									{
										"key": "Content-Type",
										"value": "application/json",
										"type": "text"
									}
								],
								"body": {
									"mode": "formdata",
									"formdata": [
										{
											"key": "customer",
											"value": "1",
											"description": "cookie data",
											"type": "text"
										},
										{
											"key": "product",
											"value": "1",
											"type": "text"
										}
									]
								},
								"url": {
									"raw": "http://localhost:8000/api/store/cart/add",
									"protocol": "http",
									"host": [
										"localhost"
									],
									"port": "8000",
									"path": [
										"api",
										"store",
										"cart",
										"add"
									]
								}
							},
							"status": "OK",
							"code": 200,
							"_postman_previewlanguage": "json",
							"header": [
								{
									"key": "Host",
									"value": "localhost:8000"
								},
								{
									"key": "Date",
									"value": "Fri, 22 Mar 2019 17:39:16 +0000"
								},
								{
									"key": "Date",
									"value": "Fri, 22 Mar 2019 17:39:16 GMT"
								},
								{
									"key": "Connection",
									"value": "close"
								},
								{
									"key": "X-Powered-By",
									"value": "PHP/7.1.11"
								},
								{
									"key": "Cache-Control",
									"value": "no-cache, private"
								},
								{
									"key": "Content-Type",
									"value": "application/json"
								},
								{
									"key": "X-RateLimit-Limit",
									"value": "60"
								},
								{
									"key": "X-RateLimit-Remaining",
									"value": "59"
								}
							],
							"cookie": [],
							"body": "{\n    \"message\": \"Product added to your cart\"\n}"
						}
					]
				},
				{
					"name": "submitOrder",
					"event": [
						{
							"listen": "test",
							"script": {
								"id": "c55390f9-4883-41ac-81cc-787df61b6bdf",
								"exec": [
									"pm.test(\"order submitted\", function () {\r",
									"    pm.response.to.have.status(200);\r",
									"});\r",
									"\r",
									"pm.test(\"products out of stock\", function () {\r",
									"    pm.response.to.have.status(404);\r",
									"});"
								],
								"type": "text/javascript"
							}
						}
					],
					"request": {
						"method": "POST",
						"header": [],
						"body": {
							"mode": "formdata",
							"formdata": [
								{
									"key": "customer",
									"value": "1",
									"type": "text"
								}
							]
						},
						"url": {
							"raw": "http://localhost:8000/api/store/order",
							"protocol": "http",
							"host": [
								"localhost"
							],
							"port": "8000",
							"path": [
								"api",
								"store",
								"order"
							]
						}
					},
					"response": [
						{
							"name": "submitOrder",
							"originalRequest": {
								"method": "POST",
								"header": [],
								"body": {
									"mode": "formdata",
									"formdata": [
										{
											"key": "customer",
											"value": "1",
											"type": "text"
										}
									]
								},
								"url": {
									"raw": "http://localhost:8000/api/store/order",
									"protocol": "http",
									"host": [
										"localhost"
									],
									"port": "8000",
									"path": [
										"api",
										"store",
										"order"
									]
								}
							},
							"status": "OK",
							"code": 200,
							"_postman_previewlanguage": "json",
							"header": [
								{
									"key": "Host",
									"value": "localhost:8000"
								},
								{
									"key": "Date",
									"value": "Fri, 22 Mar 2019 17:41:35 +0000"
								},
								{
									"key": "Date",
									"value": "Fri, 22 Mar 2019 17:41:35 GMT"
								},
								{
									"key": "Connection",
									"value": "close"
								},
								{
									"key": "X-Powered-By",
									"value": "PHP/7.1.11"
								},
								{
									"key": "Cache-Control",
									"value": "no-cache, private"
								},
								{
									"key": "Content-Type",
									"value": "application/json"
								},
								{
									"key": "X-RateLimit-Limit",
									"value": "60"
								},
								{
									"key": "X-RateLimit-Remaining",
									"value": "59"
								}
							],
							"cookie": [],
							"body": "{\n    \"message\": \"Order created successfully\"\n}"
						}
					]
				}
			]
		}
	]
}